-----BEGIN PGP PUBLIC KEY BLOCK-----

xjMEZPX5lRYJKwYBBAHaRw8BAQdAQofB+jinbTgQXdWv1M4qPTQVo3I5JJ5b
YgChdtu9sb3NI2lhbS5vbWV0aWNAcG0ubWUgPGlhbS5vbWV0aWNAcG0ubWU+
wowEEBYKAD4FgmT1+ZUECwkHCAmQwqoNDnG7PeEDFQgKBBYAAgECGQECmwMC
HgEWIQR4i3nsgu6w2fFG0U3Cqg0Ocbs94QAAh2gA/R2+5vsm2OH/7VcEyYjf
jXtwyD27xO7WYtuhIHKYuNgPAQCz+Hni/14A57QmPWDIpFbwdDWjnO55eezc
PrnmQjj3DM44BGT1+ZUSCisGAQQBl1UBBQEBB0DJKXd6vRTEN/utQ+VcZf+O
mDCT9eQAWIxaPY1PH3uMHwMBCAfCeAQYFggAKgWCZPX5lQmQwqoNDnG7PeEC
mwwWIQR4i3nsgu6w2fFG0U3Cqg0Ocbs94QAA0I8A/0CEJBC3htCjS5guxu0N
eNXnRO7ZS7LODEUVYHJmzG+ZAP9SuUDo6hu+yhyQjcSowzurwHELBjsJkHqI
kkrnyqd+Dg==
=KB2u
-----END PGP PUBLIC KEY BLOCK-----
